Testing with parameters: n_tasks=1, n_runs=10
Run 0 ... 
Done
Run 1 ... 
Done
Run 2 ... 
Done
Run 3 ... 
Done
Run 4 ... 
Done
Run 5 ... 
Done
Run 6 ... 
Done
Run 7 ... 
Done
Run 8 ... 
Done
Run 9 ... 
Done
Done
OK
Testing with parameters: n_tasks=1, n_runs=10
Run 0 ... 
Done
Run 1 ... 
Done
Run 2 ... 
Done
Run 3 ... 
Done
Run 4 ... 
Done
Run 5 ... 
Done
Run 6 ... 
Done
Run 7 ... 
Done
Run 8 ... 
Done
Run 9 ... 
Done
Done
OK
